<?xml version="1.0" encoding="UTF-8" standalone="no"?>
<!-- Generator: Adobe Illustrator 16.0.0, SVG Export Plug-In . SVG Version: 6.00 Build 0)  -->

<svg
   xmlns:dc="http://purl.org/dc/elements/1.1/"
   xmlns:cc="http://creativecommons.org/ns#"
   xmlns:rdf="http://www.w3.org/1999/02/22-rdf-syntax-ns#"
   xmlns:svg="http://www.w3.org/2000/svg"
   xmlns="http://www.w3.org/2000/svg"
   xmlns:xlink="http://www.w3.org/1999/xlink"
   xmlns:sodipodi="http://sodipodi.sourceforge.net/DTD/sodipodi-0.dtd"
   xmlns:inkscape="http://www.inkscape.org/namespaces/inkscape"
   version="1.1"
   id="Layer_1"
   x="0px"
   y="0px"
   width="269.59869"
   height="222.6524"
   viewBox="3.192 4.753 269.59869 222.6524"
   enable-background="new 3.192 4.753 273.846 280"
   xml:space="preserve"
   sodipodi:docname="grow-ur-money.svg"
   inkscape:version="0.92.5 (2060ec1f9f, 2020-04-08)"><metadata
   id="metadata141"><rdf:RDF><cc:Work
       rdf:about=""><dc:format>image/svg+xml</dc:format><dc:type
         rdf:resource="http://purl.org/dc/dcmitype/StillImage" /></cc:Work></rdf:RDF></metadata><defs
   id="defs139" /><sodipodi:namedview
   pagecolor="#ffffff"
   bordercolor="#666666"
   borderopacity="1"
   objecttolerance="10"
   gridtolerance="10"
   guidetolerance="10"
   inkscape:pageopacity="0"
   inkscape:pageshadow="2"
   inkscape:window-width="1848"
   inkscape:window-height="1053"
   id="namedview137"
   showgrid="false"
   inkscape:zoom="1.19198"
   inkscape:cx="-34.813502"
   inkscape:cy="76.814305"
   inkscape:window-x="72"
   inkscape:window-y="27"
   inkscape:window-maximized="1"
   inkscape:current-layer="g134" />
<g
   id="g134"
   transform="translate(55.016516,-43.452494)">
	
	
	
	
	
	
	
	
	<g
   enable-background="new    "
   id="g30"
   style="opacity:0.2">
		<g
   id="g28">
			<g
   id="g26">
				<defs
   id="defs19">
					<rect
   id="SVGID_1_"
   x="85.789001"
   y="49.063"
   width="140.623"
   height="37.5" />
				</defs>
				<clipPath
   id="SVGID_2_">
					<use
   xlink:href="#SVGID_1_"
   overflow="visible"
   id="use21"
   style="overflow:visible"
   x="0"
   y="0"
   width="100%"
   height="100%" />
				</clipPath>
				
			</g>
		</g>
	</g>
	
	
	
	
	
	
	
	
	
	
	
	<g
   id="g74">
		<g
   id="g62">
			<defs
   id="defs55">
				<rect
   id="SVGID_3_"
   x="15.467"
   y="163.35699"
   width="255.53101"
   height="51.523998" />
			</defs>
			<clipPath
   id="SVGID_4_">
				<use
   xlink:href="#SVGID_3_"
   overflow="visible"
   id="use57"
   style="overflow:visible"
   x="0"
   y="0"
   width="100%"
   height="100%" />
			</clipPath>
			
		</g>
		<g
   id="g72">
			<defs
   id="defs65">
				<rect
   id="SVGID_5_"
   x="15.467"
   y="163.35699"
   width="255.53101"
   height="51.523998" />
			</defs>
			<clipPath
   id="SVGID_6_">
				<use
   xlink:href="#SVGID_5_"
   overflow="visible"
   id="use67"
   style="overflow:visible"
   x="0"
   y="0"
   width="100%"
   height="100%" />
			</clipPath>
			
		</g>
	</g>
	
	
	
	
	
	
	
	
	
	<g
   enable-background="new    "
   id="g106"
   style="opacity:0.2">
		<g
   id="g104">
			<g
   id="g102">
				<defs
   id="defs95">
					<rect
   id="SVGID_7_"
   x="16.882"
   y="254.095"
   width="49.866001"
   height="24.655001" />
				</defs>
				<clipPath
   id="SVGID_8_">
					<use
   xlink:href="#SVGID_7_"
   overflow="visible"
   id="use97"
   style="overflow:visible"
   x="0"
   y="0"
   width="100%"
   height="100%" />
				</clipPath>
				
			</g>
		</g>
	</g>
	<g
   enable-background="new    "
   id="g120"
   style="opacity:0.5">
		<g
   id="g118">
			<g
   id="g116">
				<defs
   id="defs109">
					<rect
   id="SVGID_9_"
   x="10.791"
   y="161.563"
   width="55.957001"
   height="23.693001" />
				</defs>
				<clipPath
   id="SVGID_10_">
					<use
   xlink:href="#SVGID_9_"
   overflow="visible"
   id="use111"
   style="overflow:visible"
   x="0"
   y="0"
   width="100%"
   height="100%" />
				</clipPath>
				
			</g>
		</g>
	</g>
	
	
	
	
	
	
<g
   id="g1002"
   transform="translate(-57.886875,-12.584104)"><path
     sodipodi:nodetypes="csccccccccccsccccccccccccccccccscsscccccccsssscccccccccccccccccsccccccccccccccccccccccsccccccccccccccccccsscccccsccccccccccccccccc"
     inkscape:connector-curvature="0"
     style="fill:#000000;fill-opacity:1"
     id="path124"
     d="m 98.790502,163.73054 c -0.556142,0.0846 -1.111393,0.17203 -1.665783,0.26215 -8.746212,1.42177 -17.277806,3.52456 -25.703719,6.28931 -0.35,-7.471 -6.5,-13.4 -14.05,-13.41 H 20.2 c -7.71,0.02 -13.97,6.229 -14.06,13.939 -0.57,33.79 2,67.561 7.66,100.87 1.15,6.78 7.02,11.74 13.9,11.761 h 29.67 c 7.77,-0.011 14.06,-6.301 14.07,-14.07 v -17.63 c 5.1,1.42 10.07,3.27 14.87,5.52 13.95,5.681 29.76,12.12 41.66,12.12 18.77,0 90.43,-20.85 96.03,-24.04 3.48,-1.939 10.83,-11.479 31.15,-39.14 6.05,-8.24 11.779,-16.03 15.979,-21.47 3.861,-4.33 5.381,-10.261 4.071,-15.91 -0.92,-2.971 -2.78,-5.511 -5.24,-7.271 1.8,-5.319 0.4,-11.3 -3.75,-15.279 -4.62,-4.03 -11.65,-4.601 -18.83,-1.76 -1.76,-2.71 -4.35,-4.84 -7.43,-6.04 -6.41,-1.67 -13.24,-0.22 -18.431,3.92 -7.649,4.88 -14.43,10.97 -20.1,18.03 -3.08266,3.11924 -5.58855,5.45198 -10.821,6.369 -0.449,0.1 -0.909,0.2 -1.359,0.3 -4.521,1.07 -8.98,2.46 -13.311,4.15 h -0.01 c -4.99,1.25 -10.17,1.569 -15.28,0.939 -0.689,-0.26 -1.43,-0.55 -2.229,-0.85 -0.03,-0.01 -0.07,-0.03 -0.101,-0.04 -0.819,-0.34 -1.649,-0.67 -2.47,-1 -4.69609,-1.82007 -11.99691,-3.56519 -20.02886,-4.89231 -13.10626,-2.16555 -28.15928,-3.2181 -37.018638,-1.66715 M 62.06,269.372 c 0,2.59 -2.1,4.689 -4.69,4.689 H 27.7 c -2.32,0.011 -4.3,-1.67 -4.66,-3.97 -1.1,-6.47 -2.08,-12.96 -2.93,-19.47 -0.42,-3.07 -0.8,-6.14 -1.15,-9.21 -2.16,-18.73 -3.33,-37.55 -3.5,-56.41 l -0.01,-9.379 c 0.01,-1.58 0.03,-3.16 0.06,-4.74 0.03,-2.56 2.13,-4.63 4.69,-4.63 h 37.17 c 2.59,0 4.69,2.1 4.69,4.69 z M 245.92,156.001 c 0.59,-0.42 1.21,-0.85 1.72,-1.17 5.71,-3.48 10.431,-3.21 12.41,-1.5 1.62,1.41 1.351,3.72 0.86,5.37 -4.87,-0.16 -9.69,1.54 -13.41,4.89 -7.47,6.46 -14.56,12.33 -21.23,18.67 -0.279,-2.27 -0.96,-4.46 -2.01,-6.489 6.26,-7.561 13.55,-14.221 21.66,-19.771 z m -19.32,-5.74 c 2.841,-2.38 6.551,-3.46 10.221,-2.95 0.949,0.461 1.77,1.12 2.399,1.94 -7.95,5.59 -15.149,12.19 -21.399,19.62 -2.19,-1.36 -5.021,-2.53 -8.641,-3.14 4.95,-6.029 10.83,-11.249 17.42,-15.47 z m 37.11,28.731 c -4.28,5.54 -10.03,13.37 -16.12,21.67 -10.04,13.66 -25.2,34.31 -28.13,36.479 -5.58,2.82 -74.33,22.86 -91.49,22.86 -10.07,0 -25.62,-6.34 -38.13,-11.42 -8.28,-3.37 -14.09,-5.69 -18.4,-6.72 V 180.05 c 0.83,-0.24 1.68,-0.49 2.52,-0.74 9.95,-3.3 20.2,-5.619 30.58,-6.939 0.13,-0.021 0.27,-0.03 0.4,-0.05 1.58,-0.15 3.17,-0.25 4.76,-0.32 5.08,-0.24 10.14,-0.1 15.17,0.41 1.63,0.16 3.26,0.36 4.87,0.6 0.23,0.03 0.46,0.061 0.69,0.11 1.57,0.229 3.13,0.51 4.68,0.82 1.99,0.399 3.97,0.859 5.94,1.39 0.561,0.14 1.12,0.29 1.67,0.45 4.181,1.16 8.29,2.6 12.311,4.29 0.34,0.13 0.67,0.26 0.989,0.38 0.711,0.27 1.37,0.53 1.98,0.75 0.02,0.01 0.04,0.01 0.06,0.02 0.311,0.11 0.641,0.19 0.98,0.221 0.06,0.01 0.11,0.02 0.17,0.02 2.44,0.21 4.71,0.311 6.79,0.311 1.14,0.039 2.28,0.029 3.41,-0.04 3.31,-0.24 6.6,-0.811 9.81,-1.721 0.44,-0.18 0.88,-0.35 1.32,-0.52 0.88,-0.34 1.77,-0.67 2.66,-0.97 0.729,-0.261 1.47,-0.5 2.21,-0.73 5.149,-1.62 10.47,-2.65 15.859,-3.09 0.04,0 0.07,-0.01 0.11,-0.01 0.561,-0.101 1.13,-0.16 1.69,-0.19 4.3,-0.27 8.569,1.16 11.84,4.03 1.45,1.84 2.2,4.14 2.12,6.47 0,3.51 -1.221,6.49 -7.28,10.54 -6.69,4.36 -14.25,7.22 -22.15,8.38 -0.06,0.01 -0.13,0.021 -0.189,0.03 -1.9,0.32 -3.83,0.52 -5.771,0.609 l -5.76,0.271 c -0.17,0.01 -0.34,0.03 -0.5,0.06 -0.09,0 -0.18,0.021 -0.26,0.04 -0.19,-0.02 -0.39,-0.02 -0.59,0 -6.25,0.38 -12.471,1.19 -18.59,2.431 -0.891,0.189 -1.7,0.63 -2.341,1.26 -5.069,4.7 -11.26,8.02 -17.97,9.66 -2.19,0.43 -3.77,2.35 -3.77,4.59 0,2.59 2.09,4.689 4.68,4.689 0.31,0 0.62,-0.029 0.92,-0.09 8.05,-1.85 15.49,-5.689 21.64,-11.18 5.311,-1.02 10.67,-1.68 16.061,-2 0.229,-0.02 0.45,-0.05 0.66,-0.1 0.01,0.01 0.01,0 0.02,0 0.07,0.02 0.13,0.02 0.21,0.02 h 0.05 l 0.23,-0.01 0.22,-0.01 c 4.431,-0.42 8.391,-0.74 11.92,-0.94 0.13,-0.01 0.271,-0.02 0.4,-0.04 h 0.02 c 1.15,-0.17 2.29,-0.36 3.431,-0.59 0.01,0 0.02,0 0.04,-0.01 4.239,-1.07 7.989,-3.07 12.229,-3.761 3.601,-1.51 7.061,-3.35 10.351,-5.51 1.8,-0.96 3.42,-2.149 4.85,-3.54 0.01,0.01 0.01,0 0.02,-0.02 0.5,-0.561 1.021,-1.11 1.54,-1.65 9.721,-10.21 21.19,-17.85 32.25,-27.439 2.511,-2.36 6.07,-3.21 9.37,-2.261 1.511,0.45 2.71,1.58 3.24,3.061 0.37,2.75 -0.55,5.519 -2.5,7.5 z" /><g
     transform="translate(62.920519,9.2283427)"
     id="g995"><text
       xml:space="preserve"
       style="font-style:normal;font-weight:normal;font-size:40px;line-height:1.25;font-family:sans-serif;letter-spacing:0px;word-spacing:0px;fill:#000000;fill-opacity:1;stroke:none"
       x="73.620193"
       y="116.49651"
       id="text988"><tspan
         sodipodi:role="line"
         id="tspan986"
         x="73.620193"
         y="116.49651"
         style="font-style:normal;font-variant:normal;font-weight:500;font-stretch:normal;font-size:64px;font-family:Ubuntu;-inkscape-font-specification:'Ubuntu Medium'">$</tspan></text>
<circle
       style="opacity:1;fill:none;fill-opacity:1;stroke:#000000;stroke-width:9.04281044;stroke-linecap:round;stroke-linejoin:bevel;stroke-miterlimit:4;stroke-dasharray:none;stroke-dashoffset:0;stroke-opacity:1"
       id="path990"
       cx="91.700203"
       cy="95.152504"
       r="39.069843" /></g></g></g>
</svg>